<?xml version="1.0" standalone="no"?>
<!DOCTYPE svg PUBLIC "-//W3C//DTD SVG 1.1//EN" "http://www.w3.org/Graphics/SVG/1.1/DTD/svg11.dtd" >
<svg xmlns="http://www.w3.org/2000/svg">
<metadata>Generated by IcoMoon</metadata>
<defs>
<font id="icomoon" horiz-adv-x="1024">
<font-face units-per-em="1024" ascent="960" descent="-64" />
<missing-glyph horiz-adv-x="1024" />
<glyph unicode="&#x20;" horiz-adv-x="512" d="" />
<glyph unicode="&#xe900;" glyph-name="desktop" horiz-adv-x="1124" d="M1021.729 960h-919.557c-56.195 0-102.173-45.978-102.173-102.173v-613.038c0-56.195 45.978-102.173 102.173-102.173h357.605l-83.271-125.162c-22.478-33.717 1.533-79.184 42.402-79.184h286.084c40.869 0 65.391 45.467 42.402 79.184l-83.271 125.162h357.605c56.195 0 102.173 45.978 102.173 102.173v613.038c0 56.195-45.978 102.173-102.173 102.173zM1021.729 346.962h-919.557v459.778c0 28.098 22.989 51.086 51.086 51.086h817.384c28.098 0 51.086-22.989 51.086-51.086v-459.778z" />
<glyph unicode="&#xe901;" glyph-name="email" d="M548.761 958.685c-311.875 22.021-569.467-235.571-547.446-547.446 18.436-270.907 255.031-475.239 526.45-475.239h188.969c28.166 0 51.211 23.045 51.211 51.211s-23.045 51.211-51.211 51.211h-187.945c-191.017 0-366.159 123.931-413.786 308.803-76.305 297.024 200.235 574.076 497.26 497.26 185.384-47.114 309.315-222.256 309.315-413.273v-56.332c0-40.457-36.36-80.401-76.817-80.401s-76.817 39.945-76.817 80.401v64.014c0 128.54-91.156 244.277-218.159 262.201-174.118 25.093-321.093-125.467-289.855-300.609 17.412-97.813 93.716-178.727 190.505-201.772 94.228-22.021 183.848 8.194 242.741 68.111 45.578-62.478 136.734-95.253 220.208-61.965 68.623 27.142 110.616 97.301 110.616 171.045v55.82c0 271.931-204.332 508.526-475.239 526.962zM511.889 294.478c-85.010 0-153.633 68.623-153.633 153.633s68.623 153.633 153.633 153.633c85.010 0 153.633-68.623 153.633-153.633s-68.623-153.633-153.633-153.633z" />
<glyph unicode="&#xe902;" glyph-name="equal-housing-opportunity" d="M140.458 171.812h-37.665v-14.909h34.593v-12.59h-34.593v-18.321h39.336v-12.601h-53.863v70.98h52.192v-12.559zM188.087 132.693l7.12-6.706c-2.477-1.269-5.224-1.919-8.006-1.894-8.012 0-19.286 4.934-19.286 24.799s11.275 24.799 19.286 24.799c8.006 0 19.27-4.934 19.27-24.799 0-6.653-1.284-11.566-3.258-15.243l-7.513 7.014-7.614-7.969zM221.603 116.298l-7.73 7.274c4.351 5.544 7.428 13.646 7.428 25.313 0 33.304-24.714 37.347-34.105 37.347-9.386 0-34.089-4.043-34.089-37.347 0-33.325 24.703-37.357 34.089-37.357 4.138 0 11.46 0.775 18.183 4.765l8.415-8.033 7.81 8.038zM291.087 138.206c0-18.655-11.285-26.672-29.176-26.672-6.515 0-16.204 1.576-22.528 8.59-3.852 4.319-5.338 10.102-5.529 17.201v47.046h15.121v-46.043c0-9.916 5.73-14.24 12.638-14.24 10.192 0 14.331 4.934 14.331 13.535v46.749h15.148v-46.165h-0.005zM330.8 168.352h0.218l8.781-28.072h-18.114l9.115 28.072zM317.727 128.061h26.205l4.552-14.676h16.113l-24.99 70.985h-17.111l-25.303-70.985h15.615l4.918 14.676zM390.988 126.236h35.283v-12.845h-50.128v70.98h14.845v-58.135zM482.49 145.246v-31.855h-14.803v70.98h14.803v-26.879h27.685v26.879h14.808v-70.98h-14.808v31.855h-27.685zM553.241 148.891c0 19.865 11.285 24.799 19.265 24.799 8.022 0 19.297-4.934 19.297-24.799s-11.275-24.799-19.297-24.799c-7.98 0-19.265 4.934-19.265 24.799zM538.433 148.891c0-33.325 24.725-37.357 34.073-37.357 9.428 0 34.126 4.032 34.126 37.357 0 33.304-24.693 37.347-34.126 37.347-9.343 0-34.073-4.043-34.073-37.347zM677.41 138.206c0-18.655-11.285-26.672-29.181-26.672-6.526 0-16.188 1.576-22.539 8.59-3.847 4.319-5.338 10.102-5.513 17.201v47.046h15.1v-46.043c0-9.916 5.751-14.24 12.686-14.24 10.176 0 14.32 4.934 14.32 13.535v46.749h15.132v-46.165h-0.005zM704.539 135.256c0.133-3.947 2.122-11.471 15.058-11.471 7.004 0 14.829 1.677 14.829 9.211 0 5.513-5.338 7.014-12.84 8.786l-7.619 1.783c-11.503 2.663-22.56 5.2-22.56 20.82 0 7.916 4.282 21.854 27.298 21.854 21.764 0 27.584-14.219 27.69-22.921h-14.251c-0.382 3.141-1.576 10.675-14.527 10.675-5.619 0-12.341-2.075-12.341-8.5 0-5.566 4.547-6.706 7.481-7.401l17.318-4.25c9.688-2.382 18.57-6.34 18.57-19.079 0-21.377-21.732-23.234-27.966-23.234-25.876 0-30.322 14.93-30.322 23.722l14.182 0.005zM775.619 113.391h-14.782v70.98h14.782v-70.98zM834.852 184.37h13.821v-70.98h-14.808l-28.943 50.632h-0.249v-50.632h-13.821v70.98h15.615l28.136-49.428h0.249v49.428zM898.292 151.65h29.627v-38.259h-9.863l-1.48 8.892c-3.751-4.308-9.189-10.744-22.146-10.744-17.090 0-32.593 12.251-32.593 37.151 0 19.355 10.776 37.66 34.662 37.554 21.78 0 30.386-14.113 31.129-23.939h-14.808c0 2.775-5.056 11.688-15.514 11.688-10.601 0-20.374-7.306-20.374-25.483 0-19.387 10.58-24.417 20.655-24.417 3.263 0 14.166 1.263 17.201 15.615h-16.495v11.943zM99.938 41.069c0 19.865 11.264 24.82 19.26 24.82 8.006 0 19.265-4.956 19.265-24.82 0-19.854-11.259-24.831-19.265-24.831-7.996 0-19.26 4.977-19.26 24.831zM85.114 41.069c0-33.293 24.703-37.4 34.089-37.4 9.391 0 34.094 4.101 34.094 37.4s-24.709 37.347-34.094 37.347c-9.386 0-34.089-4.054-34.089-37.347zM193.918 43.451v20.873h11.763c9.184 0 13.047-2.892 13.047-9.816 0-3.162 0-11.057-11.078-11.057h-13.731zM193.918 31.174h16.989c19.085 0 22.629 16.23 22.629 22.645 0 13.927-8.282 22.735-22.035 22.735h-32.402v-70.985h14.819v25.605zM273.769 43.451v20.873h11.742c9.195 0 13.052-2.892 13.052-9.816 0-3.162 0-11.057-11.052-11.057h-13.742zM273.769 31.174h16.999c19.069 0 22.639 16.23 22.639 22.645 0 13.927-8.293 22.735-22.035 22.735h-32.434v-70.985h14.829v25.605zM350.479 41.069c0 19.865 11.237 24.82 19.276 24.82 7.969 0 19.26-4.956 19.26-24.82 0-19.854-11.285-24.831-19.26-24.831-8.038 0-19.276 4.977-19.276 24.831zM335.649 41.069c0-33.293 24.698-37.4 34.105-37.4 9.365 0 34.068 4.101 34.068 37.4s-24.703 37.347-34.068 37.347c-9.407 0-34.105-4.054-34.105-37.347zM444.177 45.319v19.005h18.459c8.701 0 10.367-5.566 10.367-9.317 0-7.025-3.741-9.688-11.455-9.688h-17.371zM429.608 5.563h14.569v27.781h15.291c10.983 0 11.588-3.741 11.588-13.429 0-7.295 0.557-10.951 1.549-14.352h16.421v1.915c-3.162 1.173-3.162 3.751-3.162 14.092 0 13.285-3.162 15.44-8.988 18.018 7.014 2.35 10.951 9.089 10.951 16.883 0 6.144-3.438 20.071-22.321 20.071h-35.904v-70.98h0.005zM543.065 5.563h-14.819v58.426h-21.435v12.559h57.715v-12.559h-21.462v-58.426zM644.085 30.404c0-18.676-11.264-26.735-29.171-26.735-6.489 0-16.177 1.65-22.517 8.654-3.857 4.329-5.338 10.070-5.513 17.18v47.046h15.1v-46.043c0-9.885 5.741-14.267 12.654-14.267 10.176 0 14.32 4.977 14.32 13.567v46.749h15.132v-46.149h-0.005zM715.824 76.548h13.864v-70.985h-14.856l-28.964 50.632h-0.159v-50.632h-13.864v70.985h15.615l28.189-49.407h0.175v49.407zM771.512 5.563h-14.872v70.985h14.872v-70.985zM829.387 5.563h-14.819v58.426h-21.408v12.559h57.689v-12.559h-21.462v-58.426zM906.893 5.563h-14.851v26.799l-24.486 44.186h17.482l14.723-30.847 14.071 30.847h16.777l-23.716-44.361v-26.624zM507.787 923.698l-477.837-235.345v-110.55h53.481v-331.617h845.113v331.617h64.22v110.55l-484.978 235.345zM825.153 346.062h-638.307v303.067l320.942 164.020 317.366-164.020v-303.067zM653.959 542.176h-295.936v106.952h295.936v-106.952zM653.959 388.778h-295.936v107.021h295.936v-107.021z" />
<glyph unicode="&#xe903;" glyph-name="facebook" d="M1024 789.322c0 89.68-80.964 170.678-170.667 170.678h-682.667c-89.702 0-170.667-80.998-170.667-170.678v-682.644c0-89.68 80.964-170.678 170.678-170.678h341.322v386.844h-125.156v170.667h125.156v66.492c0 114.677 86.107 217.953 192 217.953h137.956v-170.667h-137.956c-15.098 0-32.711-18.33-32.711-45.784v-67.994h170.667v-170.667h-170.667v-386.844h182.044c89.702 0 170.667 80.998 170.667 170.678v682.644z" />
<glyph unicode="&#xe904;" glyph-name="instagram" d="M131.435 960h761.14c72.284 0 131.425-53.516 131.425-131.425v-761.161c0-77.909-59.141-131.425-131.425-131.425h-761.14c-72.305 0-131.435 53.516-131.435 131.425v761.161c0 77.909 59.131 131.425 131.435 131.425v0zM745.947 846.228c-25.36 0-46.083-20.734-46.083-46.104v-110.344c0-25.36 20.723-46.104 46.083-46.104h115.738c25.36 0 46.104 20.744 46.104 46.104v110.344c0 25.37-20.744 46.104-46.104 46.104h-115.738zM908.272 526.95h-90.126c8.527-27.841 13.142-57.333 13.142-87.844 0-170.327-142.528-308.396-318.311-308.396-175.773 0-318.28 138.070-318.28 308.396 0 30.533 4.605 60.014 13.142 87.844h-94.048v-432.556c0-22.384 18.315-40.71 40.71-40.71h713.080c22.395 0 40.71 18.315 40.71 40.71v432.556h-0.021zM512.967 649.49c-113.572 0-205.654-89.211-205.654-199.272s92.082-199.272 205.654-199.272c113.583 0 205.675 89.211 205.675 199.272s-92.082 199.272-205.675 199.272z" />
<glyph unicode="&#xe905;" glyph-name="linkedin" d="M948.396 960h-872.726c-41.79 0-75.661-32.838-75.661-73.368v-877.245c0-40.533 33.883-73.399 75.661-73.399h872.726c41.78 0 75.613 32.888 75.613 73.399v877.245c0 40.518-33.833 73.368-75.613 73.368zM310.457 102.832h-154.719v462.329h154.719v-462.329zM233.113 628.323h-1.040c-51.884 0-85.517 35.483-85.517 79.906 0 45.318 34.621 79.839 87.534 79.839 52.917 0 85.467-34.512 86.496-79.839 0-44.432-33.566-79.906-87.472-79.906zM868.173 102.832h-154.669v247.362c0 62.155-22.41 104.566-78.344 104.566-42.79 0-68.19-28.612-79.344-56.236-4.133-9.866-5.157-23.665-5.157-37.445v-258.237h-154.641c0 0 2.024 418.965 0 462.326h154.664v-65.545c20.532 31.495 57.222 76.423 139.356 76.423 101.802 0 178.134-66.040 178.134-208.113v-265.101zM549.684 498.154c0.264 0.433 0.633 0.955 1 1.462v-1.462h-1z" />
<glyph unicode="&#xe906;" glyph-name="mobile" d="M740.59 959.535l-465.455 0.465c-51.2 0-93.091-41.891-93.091-93.091v-837.818c0-51.2 41.891-93.091 93.091-93.091h465.455c51.2 0 93.091 41.891 93.091 93.091v837.818c0 51.2-41.891 92.625-93.091 92.625zM740.59 122.182h-465.455v651.636h465.455v-651.636z" />
<glyph unicode="&#xe907;" glyph-name="phone" horiz-adv-x="1035" d="M923.973 261.588l-144.79 16.531c-34.772 3.99-68.975-7.981-93.486-32.492l-104.887-104.887c-161.321 82.086-293.57 213.765-375.656 375.656l105.457 105.457c24.512 24.512 36.483 58.714 32.492 93.486l-16.531 143.65c-6.84 57.574-55.294 100.897-113.438 100.897h-98.617c-64.414 0-117.998-53.584-114.008-117.998 30.212-486.814 419.549-875.58 905.792-905.792 64.414-3.99 117.998 49.593 117.998 114.008v98.617c0.57 57.574-42.753 106.027-100.327 112.868z" />
<glyph unicode="&#xe908;" glyph-name="receipt" d="M896 941.013c-5.547 0-11.093-2.489-14.933-7.467l-33.707-39.324c-8.533-9.956-21.76-9.956-30.293 0l-33.707 39.324c-8.533 9.956-21.76 9.956-30.293 0l-33.707-39.324c-8.533-9.956-21.76-9.956-30.293 0l-33.707 39.324c-8.533 9.956-21.76 9.956-30.293 0l-33.707-39.324c-8.533-9.956-21.76-9.956-30.293 0l-33.707 39.324c-8.533 9.956-21.76 9.956-30.293 0l-33.707-39.324c-8.533-9.956-21.76-9.956-30.293 0l-34.133 39.822c-8.533 9.956-21.76 9.956-30.293 0l-33.707-39.822c-8.533-9.956-21.76-9.956-30.293 0l-33.707 39.822c-8.533 9.956-21.76 9.956-30.293 0l-33.707-39.822c-8.533-9.956-21.76-9.956-30.293 0l-33.707 39.822c-3.84 4.48-9.387 6.969-14.933 6.969v-975.147c5.547 0 11.093 2.489 14.933 7.467l33.707 39.324c8.533 9.956 21.76 9.956 30.293 0l33.707-39.324c8.533-9.956 21.76-9.956 30.293 0l33.707 39.324c8.533 9.956 21.76 9.956 30.293 0l33.707-39.324c8.533-9.956 21.76-9.956 30.293 0l33.707 39.324c8.533 9.956 21.76 9.956 30.293 0l33.707-39.324c8.533-9.956 21.76-9.956 30.293 0l33.707 39.324c8.533 9.956 21.76 9.956 30.293 0l33.707-39.324c8.533-9.956 21.76-9.956 30.293 0l33.707 39.324c8.533 9.956 21.76 9.956 30.293 0l33.707-39.324c8.533-9.956 21.76-9.956 30.293 0l33.707 39.324c8.533 9.956 21.76 9.956 30.293 0l33.707-39.324c4.267-4.978 9.813-7.467 14.933-7.467v975.147h0.427zM725.333 204.8h-426.667c-23.467 0-42.667 22.4-42.667 49.778s19.2 49.778 42.667 49.778h426.667c23.467 0 42.667-22.4 42.667-49.778s-19.2-49.778-42.667-49.778zM725.333 403.911h-426.667c-23.467 0-42.667 22.4-42.667 49.778s19.2 49.778 42.667 49.778h426.667c23.467 0 42.667-22.4 42.667-49.778s-19.2-49.778-42.667-49.778zM725.333 603.022h-426.667c-23.467 0-42.667 22.4-42.667 49.778s19.2 49.778 42.667 49.778h426.667c23.467 0 42.667-22.4 42.667-49.778s-19.2-49.778-42.667-49.778z" />
<glyph unicode="&#xe909;" glyph-name="twitter" d="M1024 770.565c-37.689-16.7-78.129-28.026-120.618-33.083 43.385 25.98 76.594 67.188 92.334 116.139-40.696-24.059-85.616-41.529-133.48-50.999-38.328 40.888-92.846 66.356-153.316 66.356-116.010 0-210.073-94.063-210.073-210.009 0-16.444 1.856-32.505 5.44-47.864-174.559 8.768-329.345 92.399-432.942 219.481-18.109-30.971-28.411-67.059-28.411-105.581 0-72.883 37.113-137.191 93.423-174.815-34.426 1.151-66.804 10.622-95.15 26.363v-2.624c0-101.741 72.435-186.653 168.48-205.978-17.597-4.735-36.153-7.359-55.35-7.359-13.565 0-26.683 1.344-39.545 3.904 26.746-83.505 104.301-144.229 196.188-145.893-71.859-56.31-162.467-89.776-260.879-89.776-16.956 0-33.658 1.024-50.102 2.88 92.975-59.702 203.355-94.511 321.988-94.511 386.423 0 597.649 320.069 597.649 597.649l-0.704 27.195c41.271 29.437 76.976 66.421 105.067 108.526z" />
<glyph unicode="&#xe90a;" glyph-name="youtube" d="M1006.305 685.898c-12.536 54.458-57.080 94.636-110.703 100.629-126.981 14.175-255.506 14.249-383.438 14.175-127.954 0.074-256.499 0-383.481-14.175-53.592-5.993-98.103-46.171-110.64-100.629-17.843-77.554-18.044-162.212-18.044-242.060s0-164.495 17.843-242.039c12.515-54.448 57.037-94.626 110.661-100.629 126.971-14.185 255.506-14.259 383.46-14.185 127.975-0.074 256.478 0 383.438 14.185 53.592 5.993 98.145 46.171 110.682 100.629 17.853 77.554 17.917 162.202 17.917 242.039 0 79.848 0.148 164.506-17.695 242.060zM379.855 284.902c0 113.272 0 225.359 0 338.641 108.525-56.625 216.332-112.87 325.545-169.844-108.874-56.467-216.734-112.373-325.545-168.797z" />
</font></defs></svg>